Tidyverse Exercise
…
How many states exists?

(Hint: use count())

length(unique(data_covid$state))

## [1] 58

# or
data_covid %>% group_by(state) %>% count()

## # A tibble: 58 x 2
## # Groups:   state [58]
##    state                n
##    <chr>            <int>
##  1 Alabama          29187
##  2 Alaska           13113
##  3 American Samoa     423
##  4 Arizona           7191
##  5 Arkansas         32571
##  6 California       25380
##  7 Colorado         27918
##  8 Connecticut       4230
##  9 Delaware          2115
## 10 Diamond Princess   423
## #  with 48 more rows
…
Aggregate the number of death

For each state, calculate the total number of cases/deaths for each day (Hint: grouping and summarize)

data_covid %>% group_by(state, date) %>% summarise(cases = sum(cases),
                                                   deaths = sum(deaths))

## `summarise()` regrouping output by 'state' (override with `.groups` argument)

## # A tibble: 21,996 x 4
## # Groups:   state [52]
##    state   date       cases deaths
##    <chr>   <date>     <dbl>  <dbl>
##  1 Alabama 2020-01-22     0      0
##  2 Alabama 2020-01-23     0      0
##  3 Alabama 2020-01-24     0      0
##  4 Alabama 2020-01-25     0      0
##  5 Alabama 2020-01-26     0      0
##  6 Alabama 2020-01-27     0      0
##  7 Alabama 2020-01-28     0      0
##  8 Alabama 2020-01-29     0      0
##  9 Alabama 2020-01-30     0      0
## 10 Alabama 2020-01-31     0      0
## #  with 21,986 more rows

First recorded cases/deaths (by state)

Find the earliest day when a state recorded a case. Arrange by the date in descending order

data_covid %>% filter(cases > 0) %>% group_by(state) %>% summarise(date = min(date)) %>% arrange(desc(date))

## `summarise()` ungrouping output (override with `.groups` argument)

## # A tibble: 52 x 2
##    state                date      
##    <chr>                <date>    
##  1 West Virginia        2020-03-18
##  2 District of Columbia 2020-03-16
##  3 Puerto Rico          2020-03-16
##  4 Alaska               2020-03-13
##  5 Arkansas             2020-03-13
##  6 Idaho                2020-03-13
##  7 Montana              2020-03-13
##  8 Maine                2020-03-12
##  9 Mississippi          2020-03-12
## 10 North Dakota         2020-03-12
## #  with 42 more rows
…
